{
    "type": "PO ",
    "inoutFlag": "2",
    "genSeqAtEnd": "false",
    "orderType": {
      "id": "116144",
      "name": "Cash Sale"
    },
    "parentOrderFlag": "0",
    "isUpdateStock": "false",
    "bundleDetails": {
      "bundleProduct": "false"
    },
    "initialStatus": {
      "id": "104106",
      "name": "Waiting For Approval"
    },
    "orderHeader": [
      {
        "enabled": "block",
        "defaultValue": "",
        "mandatory": [
          {},
          {
            "name": "maxLength",
            "validation": "40",
            "errorMsg": "maxLength"
          },
          {
            "name": "minLength",
            "validation": "3",
            "errorMsg": "minLength"
          }
        ],
        "regularExpression": "@",
        "labelName": "customer",
        "id": "toParty",
        "name": "customerId",
        "savedName": "customerId",
        "searchProperties": {
          "filters": [
            {
              "column": "status.statusId",
              "value": "104101",
              "operator": "="
            },
            {
              "column": "customerType.customerTypeId",
              "value": "105107,105104",
              "operator": "in"
            }
          ],
          "searchUrl": "/customers/searchCustomers",
          "tableName": "customer",
          "idColumn": "customerId",
          "nameColumn": "customerName",
          "saveName": "order.orderName",
          "callback": "getSetCustomerDetails"
        },
        "type": "search"
      },
      {
        "enabled": "block",
        "defaultValue": "",
        "mandatory": [
          {},
          {
            "name": "maxLength",
            "validation": "40",
            "errorMsg": "maxLength"
          },
          {
            "name": "minLength",
            "validation": "3",
            "errorMsg": "minLength"
          }
        ],
        "regularExpression": "@",
        "labelName": "customerCode",
        "id": "customerCode",
        "name": "customerCode",
        "savedName": "customerCode",
        "type": "textBox"
      },
      {
        "enabled": "block",
        "defaultValue": "",
        "mandatory": [
          {},
          {
            "name": "maxLength",
            "validation": "40",
            "errorMsg": "maxLength"
          },
          {
            "name": "minLength",
            "validation": "3",
            "errorMsg": "minLength"
          }
        ],
        "regularExpression": "@",
        "labelName": "customerName",
        "id": "customerName",
        "name": "order.orderName",
        "savedName": "order.orderName",
        "type": "textBox"
      },
      {
        "enabled": "block",
        "defaultValue": "new Date()",
        "mandatorySymbol": "*",
        "mandatory": [
          {
            "name": "required",
            "validation": "true",
            "errorMsg": "thisFieldIsRequired"
          },
          {
            "name": "maxLength",
            "validation": "40",
            "errorMsg": "maxLength"
          },
          {
            "name": "minLength",
            "validation": "3",
            "errorMsg": "minLength"
          }
        ],
        "regularExpression": "",
        "labelName": "orderDate",
        "id": "orderDate",
        "type": "date",
        "name": "order.orderDate",
        "savedName": "order.orderDate"
      },
      {
        "enabled": "none",
        "defaultValue": "true",
        "mandatorySymbol": "*",
        "mandatory": [
          {
            "name": "required",
            "validation": "true",
            "errorMsg": "thisFieldIsRequired"
          },
          {
            "name": "maxLength",
            "validation": "40",
            "errorMsg": "maxLength"
          },
          {
            "name": "minLength",
            "validation": "3",
            "errorMsg": "minLength"
          }
        ],
        "regularExpression": "",
        "labelName": "referenceDate",
        "id": "referenceDate",
        "type": "date",
        "name": "order.referenceDate",
        "savedName": "order.referenceDate"
      },
      {
        "enabled": "none",
        "defaultValue": "",
        "mandatory": [
          {},
          {
            "name": "maxLength",
            "validation": "40",
            "errorMsg": "maxLength"
          },
          {
            "name": "minLength",
            "validation": "3",
            "errorMsg": "minLength"
          }
        ],
        "regularExpression": "#",
        "labelName": "referenceNumber",
        "id": "referenceNumber",
        "type": "textBox"
      },
      {
        "enabled": "none",
        "defaultValue": "",
        "mandatory": [
          {},
          {
            "name": "maxLength",
            "validation": "40",
            "errorMsg": "maxLength"
          },
          {
            "name": "minLength",
            "validation": "3",
            "errorMsg": "minLength"
          }
        ],
        "regularExpression": "#",
        "labelName": "controlNo",
        "id": "controlNo",
        "type": "textBox"
      },
      {
        "enabled": "none",
        "defaultValue": "",
        "mandatory": [
          {},
          {
            "name": "maxLength",
            "validation": "40",
            "errorMsg": "maxLength"
          },
          {
            "name": "minLength",
            "validation": "3",
            "errorMsg": "minLength"
          }
        ],
        "regularExpression": "#",
        "labelName": "referenceNumber3",
        "id": "referenceNumber3",
        "type": "textBox"
      },
      {
        "enabled": "block",
        "defaultValue": "",
        "mandatory": [
          {},
          {
            "name": "maxLength",
            "validation": "40",
            "errorMsg": "maxLength"
          },
          {
            "name": "minLength",
            "validation": "3",
            "errorMsg": "minLength"
          }
        ],
        "regularExpression": "",
        "labelName": "address",
        "id": "addressBlock",
        "type": "textArea",
        "name": "order.orderAddress_[0].addressBlock",
        "savedName": "order.orderAddress[0].addressBlock"
      },
      {
        "enabled": "none",
        "defaultValue": "",
        "mandatory": [
          {},
          {
            "name": "maxLength",
            "validation": "40",
            "errorMsg": "maxLength"
          },
          {
            "name": "minLength",
            "validation": "3",
            "errorMsg": "minLength"
          }
        ],
        "regularExpression": "",
        "labelName": "billingAddressBlock",
        "id": "billingAddressBlock",
        "type": "textArea",
        "name": "order.orderAddress_[0].billingAddressBlock",
        "savedName": "order.orderAddress[0].billingAddressBlock"
      },
      {
        "enabled": "block",
        "mandatory": [
          {},
          {
            "name": "maxLength",
            "validation": "40",
            "errorMsg": "maxLength"
          },
          {
            "name": "minLength",
            "validation": "3",
            "errorMsg": "minLength"
          }
        ],
        "regularExpression": "",
        "labelName": "country",
        "id": "country",
        "type": "search",
        "searchProperties": {
          "filters": [
            {
              "column": "geoType.geoTypeId",
              "value": "174101",
              "operator": "="
            }
          ],
          "searchUrl": "/masters/searchGeoLevels",
          "tableName": "geoLevel",
          "idColumn": "countryId",
          "saveName": "order.orderAddress[0].geoLevel1.geoLevelName",
          "nameColumn": "countryName",
          "callback": "orderProductTaxCalc"
        },
        "defaultId": "175101",
        "defaultName": "India",
        "name": "order.orderAddress_[0].geoLevel1.geoLevelId",
        "savedName": "order.orderAddress[0].geoLevel1.geoLevelId"
      },
      {
        "enabled": "block",
        "id": "state",
        "type": "search",
        "name": "order.orderAddress_[0].geoLevel2.geoLevelId",
        "savedName": "order.orderAddress[0].geoLevel2.geoLevelId",
        "searchProperties": {
          "filters": [
            {
              "column": "geoType.geoTypeId",
              "value": "174102",
              "operator": "="
            }
          ],
          "searchUrl": "/masters/searchGeoLevels",
          "tableName": "geoLevel",
          "idColumn": "stateId",
          "nameColumn": "stateName",
          "saveName": "order.orderAddress[0].geoLevel2.geoLevelName",
          "callback": "orderProductTaxCalc"
        },
        "defaultId": "175117",
        "defaultName": "Tamil Nadu",
        "mandatory": [
          {},
          {
            "name": "maxLength",
            "validation": "40",
            "errorMsg": "maxLength"
          },
          {
            "name": "minLength",
            "validation": "3",
            "errorMsg": "minLength"
          }
        ],
        "regularExpression": "",
        "labelName": "state"
      },
      {
        "enabled": "block",
        "defaultValue": "",
        "id": "comments",
        "type": "textBox",
        "name": "order.comments",
        "savedName": "order.comments",
        "mandatory": [
          {},
          {
            "name": "maxLength",
            "validation": "400",
            "errorMsg": "maxLength"
          },
          {
            "name": "minLength",
            "validation": "3",
            "errorMsg": "minLength"
          }
        ],
        "regularExpression": "",
        "labelName": "comments"
      },
      {
        "enabled": "none",
        "defaultValue": "",
        "mandatory": [
          {},
          {
            "name": "maxLength",
            "validation": "400",
            "errorMsg": "maxLength"
          },
          {
            "name": "minLength",
            "validation": "3",
            "errorMsg": "minLength"
          }
        ],
        "regularExpression": "",
        "labelName": "termsAndConditions",
        "id": "termsAndConditions",
        "type": "textArea",
        "name": "order.termsAndConditions",
        "savedName": "order.termsAndConditions"
      }
    ],
    "stock": {
      "isValidateStock": "true",
      "filter": {
        "stockStatus": "104104"
      }
    },
    "orderAddress": [
      {
        "templateId": "173523",
        "addressType": {
          "id": "111104",
          "name": "Shipping Address"
        },
        "enabled": "block",
        "freeFormFlag": "yes"
      },
      {
        "templateId": "173523",
        "addressType": {
          "id": "111101",
          "name": "Billing Address"
        },
        "enabled": "none",
        "freeFormFlag": "yes"
      }
    ],
    "deliverySchedule": {
      "enabled": "block",
      "labelName": "deliverySchedule",
      "deliveryType": {
        "defaultValue": "112101",
        "enabled": "block",
        "filter": {}
      },
      "frequencyType": {
        "filter": {},
        "defaultValue": "113101",
        "enabled": "none",
        "labelName": "frequencyType"
      },
      "customDays": {
        "enabled": "none",
        "defaultValue": "0",
        "mandatorySymbol": "*",
        "mandatory": [
          {
            "name": "required",
            "validation": "true",
            "errorMsg": "thisFieldIsRequired"
          },
          {
            "name": "maxLength",
            "validation": "3",
            "errorMsg": "maxLength"
          },
          {
            "name": "minLength",
            "validation": "1",
            "errorMsg": "minLength"
          },
          {
            "name": "number",
            "validation": "true",
            "errorMsg": "numbersOnly"
          }
        ],
        "regularExpression": "",
        "labelName": ""
      },
      "expectedDeliveryDate": {
        "enabled": "block",
        "defaultValue": "0",
        "mandatory": [
          {},
          {
            "name": "maxLength",
            "validation": "40",
            "errorMsg": "maxLength"
          },
          {
            "name": "minLength",
            "validation": "3",
            "errorMsg": "minLength"
          }
        ],
        "regularExpression": "-,/",
        "labelName": "expectedDeliveryDate"
      },
      "duplicateDateFlag": "true"
    },
    "shipmentInfo": {
      "enabled": "block",
      "labelName": "shipmentInfo",
      "deliveryMode": {
        "defaultValue": "10312",
        "enabled": "block",
        "labelName": "deliveryMode",
        "filter": {}
      },
      "deliveryOption": {
        "enabled": "block",
        "defaultValue": "132105",
        "labelName": "deliveryOption",
        "filter": {}
      },
      "agent": {
        "defaultValue": "0",
        "enabled": "block",
        "mandatory": [
          {},
          {
            "name": "maxLength",
            "validation": "40",
            "errorMsg": "maxLength"
          },
          {
            "name": "minLength",
            "validation": "3",
            "errorMsg": "minLength"
          }
        ],
        "regularExpression": "",
        "labelName": "agent"
      },
      "agentReference": {
        "defaultValue": "0",
        "enabled": "block",
        "mandatorySymbol": "*",
        "mandatory": [
          {},
          {
            "name": "maxLength",
            "validation": "40",
            "errorMsg": "maxLength"
          },
          {
            "name": "minLength",
            "validation": "3",
            "errorMsg": "minLength"
          }
        ],
        "regularExpression": "",
        "labelName": "agentReference"
      },
      "vehicleNo": {
        "defaultValue": "0",
        "enabled": "block",
        "mandatorySymbol": "*",
        "mandatory": [
          {
            "name": "",
            "validation": "true",
            "errorMsg": "thisFieldIsRequired"
          },
          {
            "name": "maxLength",
            "validation": "40",
            "errorMsg": "maxLength"
          },
          {
            "name": "minLength",
            "validation": "3",
            "errorMsg": "minLength"
          },
          {
            "name": "number",
            "validation": "false",
            "errorMsg": "numbersOnly"
          }
        ],
        "regularExpression": "-",
        "labelName": "vehicleNo"
      },
      "contact": {
        "defaultValue": "0",
        "enabled": "block",
        "mandatory": [
          {},
          {
            "name": "maxLength",
            "validation": "40",
            "errorMsg": "maxLength"
          },
          {
            "name": "minLength",
            "validation": "3",
            "errorMsg": "minLength"
          },
          {
            "name": "number",
            "validation": "true",
            "errorMsg": "numbersOnly"
          }
        ],
        "regularExpression": "-",
        "labelName": "contact"
      },
      "remarks": {
        "defaultValue": "0",
        "enabled": "block",
        "mandatory": [
          {},
          {
            "name": "maxLength",
            "validation": "40",
            "errorMsg": "maxLength"
          },
          {
            "name": "minLength",
            "validation": "3",
            "errorMsg": "minLength"
          }
        ],
        "regularExpression": "",
        "labelName": "remarks"
      }
    },
    "orderProductStatus": {
      "fromStatus": {
        "labelName": "fromStatus",
        "enabled": "none"
      },
      "toStatus": {
        "enabled": "table-cell",
        "labelName": "toStatus"
      },
      "availQty": {
        "labelName": "availableQty",
        "enabled": "none"
      },
      "quantity": {
        "enabled": "table-cell",
        "labelName": "quantity"
      },
      "stockQuantity": {
        "enabled": "table-cell",
        "labelName": "stockQuantity"
      },
      "reason": {
        "enabled": "table-cell",
        "labelName": "reason"
      },
      "actions": {
        "enabled": "table-cell",
        "labelName": "actions",
        "removeIcon": {
          "enabled": "block"
        },
        "addIcon": {
          "enabled": "block"
        }
      }
    },
    "orderProducts": {
      "rejectedQty": {
        "id": "104127",
        "name": "Rejected",
        "labelName": "rejectedQty",
        "enabled": "table-cell"
      },
      "vendorProduct": {
        "vendorProductSearch": "block",
        "vendorProductFlag": "1"
      },
      "shortShipment": {
        "id": "104136",
        "name": "Short Shipment",
        "labelName": "shortShipment",
        "enabled": "table-cell"
      },
      "rework": {
        "id": "104140",
        "name": "Rework",
        "labelName": "reworkQty",
        "enabled": "table-cell"
      },
      "receivedQty": {
        "labelName": "receivedQty",
        "enabled": "table-cell"
      },
      "filters": [
        {
          "value": "104101",
          "column": "status.statusId",
          "operator": "in"
        },
        {
          "value": "130305",
          "column": "productType.productTypeId",
          "operator": "not in"
        }
      ],
      "searchBox": "block",
      "categoryFilter": "block",
      "enabled": "block",
      "size": "20",
      "productName": {
        "enabled": "table-cell",
        "labelName": "productName"
      },
      "productCode": {
        "enabled": "none",
        "labelName": "productCode"
      },
      "tax": {
        "enabled": "table-cell",
        "labelName": "tax",
        "disabled": "true"
      },
      "uom": {
        "enabled": "table-cell",
        "labelName": "uom"
      },
      "convertedQty": {
        "enabled": "table-cell",
        "labelName": "convertedQty"
      },
      "stockUom": {
        "enabled": "table-cell",
        "labelName": "stockUom"
      },
      "price": {
        "enabled": "table-cell",
        "labelName": "price",
        "editPrice": "true"
      },
      "parentOrderNo": {
        "enabled": "table-cell",
        "labelName": "parentOrderNo"
      },
      "parentOrderType": {
        "enabled": "table-cell",
        "labelName": "parentOrderType"
      },
      "childOrderActions": {
        "enabled": "table-cell"
      },
      "actions": {
        "enabled": "table-cell",
        "labelName": "actions",
        "removeIcon": {
          "enabled": "block"
        },
        "description": {
          "enabled": "none"
        }
      },
      "quantity": {
        "enabled": "table-cell",
        "labelName": "quantity",
        "mandatory": [
          {},
          {
            "name": "maxLength",
            "validation": "40",
            "errorMsg": "maxLength"
          },
          {
            "name": "minLength",
            "validation": "3",
            "errorMsg": "minLength"
          },
          {
            "name": "number",
            "validation": "true",
            "errorMsg": "numbersOnly"
          }
        ]
      },
      "discount": {
        "enabled": "table-cell",
        "labelName": "discount",
        "defaultValue": "0",
        "mandatory": [
          {},
          {
            "name": "maxLength",
            "validation": "40",
            "errorMsg": "maxLength"
          },
          {
            "name": "minLength",
            "validation": "3",
            "errorMsg": "minLength"
          },
          {
            "name": "number",
            "validation": "true",
            "errorMsg": "numbersOnly"
          }
        ],
        "regularExpression": "."
      },
      "shippingUnits": {
        "enabled": "none",
        "defaultValue": "",
        "labelName": "shippingUnits"
      },
      "shippingQty": {
        "enabled": "none",
        "defaultValue": "0",
        "labelName": "shippingQty",
        "mandatory": [
          {},
          {
            "name": "maxLength",
            "validation": "40",
            "errorMsg": "maxLength"
          },
          {
            "name": "minLength",
            "validation": "3",
            "errorMsg": "minLength"
          },
          {
            "name": "number",
            "validation": "true",
            "errorMsg": "numbersOnly"
          }
        ],
        "regularExpression": ""
      },
      "total": {
        "enabled": "table-cell",
        "labelName": "total"
      },
      "description": {
        "enabled": "none",
        "labelName": "description",
        "productSchedule": "show"
      },
      "operations": {
        "filter": {},
        "enabled": "none",
        "labelName": "operations",
        "defaultSelect": "204101"
      },
      "consumption": {
        "filter": {},
        "enabled": "none",
        "labelName": "consumption",
        "onLoadvalueSet": "no",
        "onloadOpenModel": "no"
      },
      "categoryFilterValidation": {
        "filter": {},
        "enabled": "block",
        "labelName": "Limit Exceed For Category - ",
        "validation": "true"
      },
      "searchBomProductsAction": "true",
      "productFilters": [
        {
          "value": "104101",
          "column": "status.statusId",
          "operator": "in"
        },
        {
          "value": "130305",
          "column": "productType.productTypeId",
          "operator": "not in"
        }
      ],
      "serialFilters": [
        {
          "value": "104104",
          "column": "status.statusId",
          "operator": "in"
        }
      ],
      "exchangeProductFilters": [
        {
          "value": "104101",
          "column": "status.statusId",
          "operator": "in"
        },
        {
          "value": "130305",
          "column": "productType.productTypeId",
          "operator": "not in"
        }
      ],
      "exchangeSerialFilters": [
        {
          "value": "104108",
          "column": "status.statusId",
          "operator": "in"
        }
      ],
      "stockUnit": {
        "enabled": "table-cell",
        "labelName": "stockUnit"
      }
    },
    "tax": {
      "enabled": "block",
      "collapse": "collapsed",
      "forwardTax": {
        "enabled": "table-cell",
        "defaultSelect": "true",
        "labelName": "forwardTax"
      },
      "vendorTax": {
        "vendorTaxFlag": "0",
        "changeTaxPolicy": "0"
      },
      "roundUpto": {
        "enabled": "table-cell",
        "labelName": "roundUpto",
        "disabled": " "
      },
      "roundOffPolicy": {
        "enabled": "table-cell",
        "labelName": "roundOffPolicy",
        "disabled": " "
      },
      "changeForwordTax": "1",
      "taxPolicy": {
        "enabled": "block",
        "labelName": "taxPolicy",
        "filter": {}
      },
      "tax": {
        "enabled": "table-cell",
        "labelName": "tax",
        "defaultValue": "0"
      },
      "percentage": {
        "enabled": "table-cell",
        "labelName": "percentage",
        "defaultValue": "0",
        "editPercentage": "true"
      },
      "applicableOn": {
        "enabled": "table-cell",
        "labelName": "applicableOn",
        "defaultValue": "0"
      },
      "taxAmount": {
        "enabled": "table-cell",
        "labelName": "taxAmount",
        "editTaxAmount": "true",
        "defaultValue": "0"
      },
      "taxComponent": {
        "enabled": "table-cell",
        "labelName": "Tax Component",
        "defaultValue": ""
      }
    },
    "searchOrders": {
      "filter": {
        "116102": {
          "vendor": {
            "name": "customer",
            "enabled": "block",
            "mandatory": [
              {
                "name": "required",
                "validation": "true",
                "errorMsg": "thisFieldIsRequired"
              }
            ]
          },
          "parentOrderTypeIds": "116102",
          "approvedProductStatusIds": "104107,104224,104217,104104",
          "parentOrderStatusIds": "104107",
          "approvedStatusIds": "104108",
          "intransitStatusIds": "104106,104147,104172",
          "usedQtyStatusIds": "",
          "orderNumber": {
            "name": "Sales Order No",
            "enabled": "none",
            "mandatory": [
              {
                "name": "required",
                "validation": "true",
                "errorMsg": "thisFieldIsRequired"
              }
            ]
          },
          "orderDetails": {
            "orderNumber": {
              "name": "Sales Order No",
              "enabled": "table-cell"
            },
            "referenceNumber": {
              "name": "referenceNumber",
              "enabled": "table-cell"
            },
            "dateTime": {
              "name": "dateTime",
              "enabled": "table-cell"
            },
            "productName": {
              "name": "productName",
              "enabled": "table-cell"
            },
            "productCode": {
              "name": "productCode",
              "enabled": "none"
            },
            "tax": {
              "enabled": "none",
              "name": "tax"
            },
            "orderedQty": {
              "name": "orderInvoiceQty",
              "enabled": "table-cell"
            },
            "inTransitQty": {
              "name": "inTransitQty",
              "enabled": "table-cell"
            },
            "invoicedQty": {
              "name": "invoicedQty",
              "enabled": "table-cell"
            },
            "usedQty": {
              "name": "shippedQty",
              "enabled": "none"
            },
            "newQty": {
              "name": "newQty",
              "enabled": "table-cell"
            }
          }
        },
        "116103": {
          "orderNumber": {
            "name": "Boq",
            "enabled": "none",
            "mandatory": [
              {
                "name": "required",
                "validation": "true",
                "errorMsg": "thisFieldIsRequired"
              }
            ]
          },
          "vendor": {
            "name": "customer",
            "enabled": "block",
            "mandatory": [
              {
                "name": "required",
                "validation": "true",
                "errorMsg": "thisFieldIsRequired"
              }
            ]
          },
          "orderDetails": {
            "orderNumber": {
              "name": "Boq No",
              "enabled": "table-cell"
            },
            "referenceNumber": {
              "name": "referenceNumber",
              "enabled": "table-cell"
            },
            "dateTime": {
              "name": "dateTime",
              "enabled": "table-cell"
            },
            "productName": {
              "name": "productName",
              "enabled": "table-cell"
            },
            "productCode": {
              "name": "productCode",
              "enabled": "none"
            },
            "tax": {
              "enabled": "none",
              "name": "tax"
            },
            "orderedQty": {
              "name": "orderInvoiceQty",
              "enabled": "table-cell"
            },
            "inTransitQty": {
              "name": "inTransitQty",
              "enabled": "table-cell"
            },
            "invoicedQty": {
              "name": "invoicedQty",
              "enabled": "table-cell"
            },
            "usedQty": {
              "name": "shippedQty",
              "enabled": "none"
            },
            "newQty": {
              "name": "newQty",
              "enabled": "table-cell"
            }
          },
          "parentOrderTypeIds": "116103",
          "approvedProductStatusIds": "104107",
          "parentOrderStatusIds": "104107",
          "approvedStatusIds": "104108",
          "intransitStatusIds": "104106,104147,104172",
          "usedQtyStatusIds": ""
        },
        "116142": {
          "orderNumber": {
            "name": "DC No",
            "enabled": "none",
            "mandatory": [
              {
                "name": "required",
                "validation": "true",
                "errorMsg": "thisFieldIsRequired"
              }
            ]
          },
          "vendor": {
            "name": "customer",
            "enabled": "block",
            "mandatory": [
              {
                "name": "required",
                "validation": "true",
                "errorMsg": "thisFieldIsRequired"
              }
            ]
          },
          "orderDetails": {
            "orderNumber": {
              "name": "DC No",
              "enabled": "table-cell"
            },
            "referenceNumber": {
              "name": "referenceNumber",
              "enabled": "table-cell"
            },
            "dateTime": {
              "name": "dateTime",
              "enabled": "table-cell"
            },
            "productName": {
              "name": "productName",
              "enabled": "table-cell"
            },
            "productCode": {
              "name": "productCode",
              "enabled": "none"
            },
            "tax": {
              "enabled": "none",
              "name": "tax"
            },
            "orderedQty": {
              "name": "orderInvoiceQty",
              "enabled": "table-cell"
            },
            "inTransitQty": {
              "name": "inTransitQty",
              "enabled": "table-cell"
            },
            "invoicedQty": {
              "name": "invoicedQty",
              "enabled": "table-cell"
            },
            "usedQty": {
              "name": "shippedQty",
              "enabled": "none"
            },
            "newQty": {
              "name": "newQty",
              "enabled": "table-cell"
            }
          },
          "parentOrderTypeIds": "116102",
          "approvedProductStatusIds": "104107,104224,104217,104104",
          "parentOrderStatusIds": "104107",
          "approvedStatusIds": "104108",
          "intransitStatusIds": "104106,104147,104172",
          "usedQtyStatusIds": ""
        },
        "116181": {
          "orderDetails": {
            "orderNumber": {
              "name": "Sales Order No",
              "enabled": "table-cell"
            },
            "referenceNumber": {
              "name": "referenceNumber",
              "enabled": "table-cell"
            },
            "dateTime": {
              "name": "dateTime",
              "enabled": "table-cell"
            },
            "productName": {
              "name": "productName",
              "enabled": "table-cell"
            },
            "productCode": {
              "name": "productCode",
              "enabled": "none"
            },
            "tax": {
              "enabled": "none",
              "name": "tax"
            },
            "orderedQty": {
              "name": "orderInvoiceQty",
              "enabled": "table-cell"
            },
            "inTransitQty": {
              "name": "inTransitQty",
              "enabled": "table-cell"
            },
            "invoicedQty": {
              "name": "invoicedQty",
              "enabled": "table-cell"
            },
            "usedQty": {
              "name": "shippedQty",
              "enabled": "none"
            },
            "newQty": {
              "name": "newQty",
              "enabled": "table-cell"
            }
          },
          "parentOrderTypeIds": "116181",
          "approvedProductStatusIds": "104107",
          "parentOrderStatusIds": "104107,104201",
          "approvedStatusIds": "104107",
          "intransitStatusIds": "104106,104147",
          "usedQtyStatusIds": ""
        },
        "116220": {
          "orderNumber": {
            "name": "Boq",
            "enabled": "none",
            "mandatory": [
              {
                "name": "required",
                "validation": "true",
                "errorMsg": "thisFieldIsRequired"
              }
            ]
          },
          "vendor": {
            "name": "customer",
            "enabled": "block",
            "mandatory": [
              {
                "name": "required",
                "validation": "true",
                "errorMsg": "thisFieldIsRequired"
              }
            ]
          },
          "orderDetails": {
            "orderNumber": {
              "name": "Boq No",
              "enabled": "table-cell"
            },
            "referenceNumber": {
              "name": "referenceNumber",
              "enabled": "table-cell"
            },
            "dateTime": {
              "name": "dateTime",
              "enabled": "table-cell"
            },
            "productName": {
              "name": "productName",
              "enabled": "table-cell"
            },
            "productCode": {
              "name": "productCode",
              "enabled": "none"
            },
            "tax": {
              "enabled": "none",
              "name": "tax"
            },
            "orderedQty": {
              "name": "orderInvoiceQty",
              "enabled": "table-cell"
            },
            "inTransitQty": {
              "name": "inTransitQty",
              "enabled": "table-cell"
            },
            "invoicedQty": {
              "name": "invoicedQty",
              "enabled": "table-cell"
            },
            "usedQty": {
              "name": "shippedQty",
              "enabled": "none"
            },
            "newQty": {
              "name": "newQty",
              "enabled": "table-cell"
            }
          },
          "parentOrderTypeIds": "116220",
          "approvedProductStatusIds": "104107",
          "parentOrderStatusIds": "104107",
          "approvedStatusIds": "104108",
          "intransitStatusIds": "104106,104147,104172",
          "usedQtyStatusIds": ""
        }
      }
    },
    "orderSummary": {
      "orderSummaryTable": [
        {
          "enabled": "table-row",
          "labelName": "subTotal",
          "fontSize": "12px",
          "type": "text",
          "backColor": "#428bca",
          "id": "subTotal",
          "class": "amtExpo aff-right",
          "fontColor": "white"
        },
        {
          "fontSize": "12px",
          "class1": "amtExpo aff-right",
          "class2": "amtExpo aff-right",
          "type": "splitBox",
          "enabled": "table-row",
          "backColor": "#428bca",
          "fontColor": "white",
          "id1": "discountBtPer",
          "id2": "discountBtAmt",
          "properties": {
            "method1": "calcDiscountBtAmt(),calcTotal()",
            "method2": "calcDiscountBtPer(),calcTotal()"
          },
          "labelName": "discountBT"
        },
        {
          "fontColor": "white",
          "class": "amtExpo aff-right",
          "type": "text",
          "backColor": "#428bca",
          "fontSize": "12px",
          "enabled": "table-row",
          "id": "totalTax",
          "labelName": "totalTax"
        },
        {
          "fontColor": "white",
          "backColor": "#428bca",
          "class1": "amtExpo aff-right",
          "class2": "amtExpo aff-right",
          "type": "splitBox",
          "properties": {
            "method1": "calcDiscountAtAmt(),calcTotal()",
            "method2": "calcDiscountAtPer(),calcTotal()"
          },
          "fontSize": "12px",
          "enabled": "table-row",
          "id1": "discountAtPer",
          "id2": "discountAtAmt",
          "labelName": "discountAT"
        },
        {
          "fontColor": "white",
          "class": "amtExpo aff-right",
          "type": "text",
          "backColor": "#428bca",
          "fontSize": "12px",
          "enabled": "table-row",
          "id": "exchangeAmt",
          "labelName": "exchangeAmount"
        },
        {
          "backColor": "#428bca",
          "fontColor": "white",
          "class": "aff-right",
          "fontSize": "12px",
          "enabled": "table-row",
          "type": "dropDown",
          "properties": {
            "idField": "getRoundOffPolicyId",
            "nameField": "getPolicyName",
            "dataKey": "roundOffPolicy",
            "method": "calcTotal"
          },
          "id": "roundOffPolicy",
          "labelName": "roundOffPolicy"
        },
        {
          "backColor": "#7dda77",
          "fontColor": "white",
          "class": "amtExpo aff-right",
          "fontSize": "12px",
          "type": "text",
          "id": "grandTotal",
          "enabled": "table-row",
          "labelName": "grandTotal"
        },
        {
          "backColor": "#428bca",
          "class": "amtExpo aff-right",
          "fontColor": "white",
          "fontSize": "12px",
          "type": "text",
          "id": "amountPaid",
          "enabled": "table-row",
          "labelName": "amountPaid"
        },
        {
          "backColor": "#428bca",
          "type": "text",
          "fontColor": "white",
          "fontSize": "12px",
          "class": "amtExpo aff-right",
          "id": "change",
          "enabled": "table-row",
          "labelName": "change"
        }
      ],
      "amountPaid": {
        "enabled": "block",
        "labelName": "amountPaid"
      },
      "change": {
        "enabled": "block",
        "labelName": "change"
      },
      "payment": {
        "158101": {
          "denominationType": {
            "id": "224002",
            "name": "collection"
          },
          "paymentHeader": {
            "rs": {
              "labelName": "rs."
            },
            "quantity": {
              "labelName": "quantity"
            },
            "amount": {
              "labelName": "amount"
            }
          },
          "paymentAccount": {
            "labelName": "account",
            "enabled": "block",
            "defaultValue": ""
          },
          "paymentAmount": [
            {
              "amount": 2000
            },
            {
              "amount": 1000
            },
            {
              "amount": 500
            },
            {
              "amount": 200
            },
            {
              "amount": 100
            },
            {
              "amount": 50
            },
            {
              "amount": 20
            },
            {
              "amount": 10
            },
            {
              "amount": 5
            },
            {
              "amount": 2
            },
            {
              "amount": 1
            }
          ]
        },
        "158202": {
          "paymentAccount": {
            "labelName": "account",
            "enabled": "block"
          },
          "clearedFlag": {
            "labelName": "cleared",
            "enabled": "block"
          },
          "amount": {
            "labelName": "amount",
            "enabled": "block"
          }
        },
        "158203": {
          "paymentAccount": {
            "labelName": "account",
            "enabled": "block"
          },
          "amount": {
            "labelName": "amount",
            "enabled": "block"
          }
        },
        "158204": {
          "paymentAccount": {
            "labelName": "account",
            "enabled": "block"
          },
          "amount": {
            "labelName": "amount",
            "enabled": "block"
          }
        },
        "158205": {
          "paymentAccount": {
            "labelName": "account",
            "enabled": "block"
          },
          "amount": {
            "labelName": "amount",
            "enabled": "block"
          }
        },
        "158206": {
          "paymentAccount": {
            "labelName": "account",
            "enabled": "block"
          },
          "amount": {
            "labelName": "amount",
            "enabled": "block"
          },
          "rcpyType": {
            "id": "141101"
          }
        },
        "enabled": "block",
        "labelName": "payment",
        "createCashBox": "true",
        "saveButton": {
          "labelName": "save",
          "style": "btn-primary"
        },
        "cancelButton": {
          "labelName": "cancel",
          "style": "btn-secondary"
        },
        "getCash": [
          {
            "labelName": "2000",
            "style": "btn-blue-grey"
          },
          {
            "labelName": "1000",
            "style": "btn-blue-grey"
          },
          {
            "labelName": "500",
            "style": "btn-blue-grey"
          },
          {
            "labelName": "200",
            "style": "btn-blue-grey"
          },
          {
            "labelName": "100",
            "style": "btn-blue-grey"
          },
          {
            "labelName": "50",
            "style": "btn-blue-grey"
          },
          {
            "labelName": "20",
            "style": "btn-blue-grey"
          },
          {
            "labelName": "10",
            "style": "btn-blue-grey"
          },
          {
            "labelName": "5",
            "style": "btn-blue-grey"
          },
          {
            "labelName": "2",
            "style": "btn-blue-grey"
          },
          {
            "labelName": "1",
            "style": "btn-blue-grey"
          }
        ]
      }
    },
    "orderProductTable": [
      {
        "enabled": "none",
        "labelName": "productCodeName",
        "class": "orderProductCodeName"
      },
      {
        "enabled": "table-cell",
        "labelName": "stockUom",
        "class": "orderProductStockUom"
      },
      {
        "enabled": "table-cell",
        "labelName": "uom",
        "class": "orderProductUom"
      },
      {
        "enabled": "table-cell",
        "labelName": "price",
        "class": "orderProductPrice amtExpo"
      },
      {
        "enabled": "table-cell",
        "labelName": "quantity",
        "class": "orderProductQuantity qtyExpo"
      },
      {
        "enabled": "table-cell",
        "labelName": "convertedQty",
        "class": "orderProductConvertedQty qtyExpo"
      },
      {
        "enabled": "table-cell",
        "labelName": "tax",
        "class": "orderProductTax"
      },
      {
        "enabled": "table-cell",
        "labelName": "discount",
        "class": "orderProductDiscount amtExpo"
      },
      {
        "enabled": "table-cell",
        "labelName": "total",
        "class": "orderProductTotal amtExpo"
      }
    ],
    "defaultValues": [
      {
        "id": "orderType",
        "name": "order.orderType.orderTypeId",
        "value": "116144"
      },
      {
        "id": "orderName",
        "name": "order.orderName",
        "value": "Cash Sale"
      },
      {
        "id": "addressTypeId",
        "name": "order.orderAddress_[0].addressType.addressTypeId",
        "value": "111101"
      },
      {
        "id": "freeformFlag",
        "name": "order.orderAddress_[0].freeformFlag",
        "value": "0"
      },
      {
        "id": "stockUpdateFlag",
        "name": "order.stockUpdateFlag",
        "value": "1"
      },
      {
        "id": "vendorProductFlag",
        "name": "order.vendorProductFlag",
        "value": "0"
      },
      {
        "id": "consumptionFlag",
        "name": "order.consumptionFlag",
        "value": "0"
      },
      {
        "id": "inOutFlagHidden",
        "name": "order.inOutFlag",
        "value": "2"
      },
      {
        "id": "parentOrderFlag",
        "name": "order.parentOrderFlag",
        "value": "0"
      },
      {
        "id": "isupdatestock",
        "name": "isUpdateStock",
        "value": "true"
      }
    ],
    "buttonActions": [
      {
        "title": "PO",
        "label": "View Bill (F2)",
        "style": "btn-amber",
        "method": "openExternalViewModel('View Bill','/orders/bo/viewCashSales')",
        "key": "113"
      },
      {
        "style": "btn-amber",
        "title": "PO",
        "label": "View Reports (F3)",
        "method": "reportTail()",
        "key": "114"
      },
      {
        "title": "PO",
        "label": "View Stock (F4)",
        "style": "btn-amber",
        "method": "openExternalViewModel('View Stock','/stock/bo/viewStocks')",
        "key": "115"
      },
      {
        "title": "PO",
        "label": "Search Item (F5)",
        "style": "btn-amber",
        "method": "openAddProductModel()",
        "key": "116"
      },
      {
        "title": "PO",
        "label": "Search Exc.product (F6)",
        "style": "btn-amber",
        "method": "openAddExchangeProductModel()",
        "key": "117"
      },
      {
        "title": "PO",
        "label": "Add Serial No(F7)",
        "style": "btn-amber",
        "method": "openAddSerialModel()",
        "key": "118"
      },
      {
        "style": "btn-amber hideButton",
        "title": "PO",
        "label": "Save(F8)",
        "method": "saveFunction()",
        "key": "119"
      },
      {
        "style": "btn-amber hideButton",
        "title": "PO",
        "label": "Submit(F9)",
        "method": "submitFunction()",
        "key": "120"
      },
      {
        "style": "btn-amber hideButton",
        "title": "PO",
        "label": "Reset(F10)",
        "method": "reload()",
        "key": "121"
      }
    ],
    "shortcutIcon": [
      {
        "title": "PO",
        "icon": "fa-bars",
        "backColor": "gray",
        "url": ""
      },
      {
        "title": "PO",
        "icon": "fa-edit",
        "backColor": "green",
        "url": ""
      },
      {
        "title": "PO",
        "icon": "fa-edit",
        "backColor": "blue",
        "url": ""
      },
      {
        "title": "PO",
        "icon": "fa-edit",
        "backColor": "#f9db46",
        "url": ""
      },
      {
        "title": "PO",
        "icon": "fa-edit",
        "backColor": "#f946c2",
        "url": ""
      },
      {
        "title": "PO",
        "icon": "fa-edit",
        "backColor": "#b1e6c6",
        "url": ""
      },
      {
        "title": "PO",
        "icon": "fa-edit",
        "backColor": "#c2c5e8",
        "url": ""
      },
      {
        "title": "PO",
        "icon": "fa-edit",
        "backColor": "#f7e407",
        "url": ""
      },
      {
        "title": "PO",
        "icon": "fa-edit",
        "backColor": "#f707d9",
        "url": ""
      },
      {
        "title": "PO",
        "icon": "fa-edit",
        "backColor": "#07f7e1",
        "url": ""
      },
      {
        "title": "PO",
        "icon": "fa-edit",
        "backColor": "#c7a18f",
        "url": ""
      }
    ],
    "orderDetail": [
      {
        "enabled": "none",
        "mandatory": [
          {
            "name": "required",
            "validation": "true",
            "errorMsg": "thisFieldIsRequired"
          },
          {
            "name": "maxLength",
            "validation": "40",
            "errorMsg": "maxLength"
          },
          {
            "name": "minLength",
            "validation": "3",
            "errorMsg": "minLength"
          }
        ],
        "regularExpression": "",
        "labelName": "workflow",
        "id": "orderWorkflowSeq",
        "type": "orderWorkflow"
      },
      {
        "enabled": "none",
        "defaultValue": "",
        "mandatory": [
          {},
          {
            "name": "maxLength",
            "validation": "40",
            "errorMsg": "maxLength"
          },
          {
            "name": "minLength",
            "validation": "3",
            "errorMsg": "minLength"
          }
        ],
        "regularExpression": "@",
        "labelName": "customer",
        "id": "parantParty",
        "name": "",
        "savedName": "",
        "searchProperties": {
          "filters": [
            {
              "column": "status.statusId",
              "value": "104101",
              "operator": "="
            },
            {
              "column": "customerType.customerTypeId",
              "value": "105107,105104",
              "operator": "in"
            }
          ],
          "searchUrl": "/customers/searchCustomers",
          "tableName": "customer",
          "idColumn": "customerId",
          "nameColumn": "customerName",
          "saveName": "",
          "callback": "vendorIdSearch"
        },
        "type": "search"
      },
      {
        "enabled": "none",
        "defaultValue": "",
        "mandatory": [
          {},
          {
            "name": "maxLength",
            "validation": "40",
            "errorMsg": "maxLength"
          },
          {
            "name": "minLength",
            "validation": "3",
            "errorMsg": "minLength"
          }
        ],
        "regularExpression": "@",
        "labelName": "orderNo",
        "id": "parantOrderNo",
        "name": "",
        "savedName": "",
        "searchProperties": {
          "filters": [
            {
              "column": "orderType.orderTypeId",
              "value": "'+$(\"#pendingOrderTypes option:selected\").val()+'",
              "operator": "in"
            },
            {
              "column": "orderStatus.statusId",
              "value": "104201",
              "operator": "in"
            },
            {
              "column": "orderWorkFlow.orderWorkFlowId",
              "value": "'+$(\"#pendingOrderTypes option:selected\").attr(\"data-flowid\")+'",
              "operator": "in"
            }
          ],
          "searchUrl": "/orders/searchOrderById",
          "tableName": "orders",
          "idColumn": "orderId",
          "nameColumn": "orderName",
          "saveName": "",
          "callback": "orderIdSearch"
        },
        "type": "search"
      },
      {
        "enabled": "block",
        "defaultValue": "true",
        "mandatory": [
          {
            "name": "required",
            "validation": "true",
            "errorMsg": "thisFieldIsRequired"
          },
          {
            "name": "maxLength",
            "validation": "40",
            "errorMsg": "maxLength"
          },
          {
            "name": "minLength",
            "validation": "3",
            "errorMsg": "minLength"
          }
        ],
        "regularExpression": "",
        "labelName": "billDate"
      },
      {
        "enabled": "block",
        "defaultValue": "",
        "mandatory": [
          {},
          {
            "name": "maxLength",
            "validation": "40",
            "errorMsg": "maxLength"
          },
          {
            "name": "minLength",
            "validation": "3",
            "errorMsg": "minLength"
          }
        ],
        "regularExpression": "#",
        "labelName": "deliveryMode"
      },
      {
        "enabled": "block",
        "defaultValue": "",
        "mandatory": [
          {},
          {
            "name": "maxLength",
            "validation": "40",
            "errorMsg": "maxLength"
          },
          {
            "name": "minLength",
            "validation": "3",
            "errorMsg": "minLength"
          }
        ],
        "regularExpression": "#",
        "labelName": "deliveryOptions"
      },
      {
        "enabled": "block",
        "defaultValue": "",
        "mandatory": [
          {},
          {
            "name": "maxLength",
            "validation": "40",
            "errorMsg": "maxLength"
          },
          {
            "name": "minLength",
            "validation": "3",
            "errorMsg": "minLength"
          }
        ],
        "regularExpression": "#",
        "labelName": "refNo"
      },
      {
        "enabled": "block",
        "defaultValue": "",
        "mandatory": [
          {},
          {
            "name": "maxLength",
            "validation": "40",
            "errorMsg": "maxLength"
          },
          {
            "name": "minLength",
            "validation": "3",
            "errorMsg": "minLength"
          }
        ],
        "regularExpression": "",
        "labelName": "comments"
      }
    ],
    "orderHeaders": {
      "orderFrom": {
        "enabled": "block",
        "defaultValue": "",
        "mandatorySymbol": "*",
        "name": "order.orderFrom.customerName",
        "mandatory": [
          {
            "name": "required",
            "validation": "true",
            "errorMsg": "thisFieldIsRequired"
          }
        ],
        "regularExpression": "@",
        "labelName": "company",
        "filter": {}
      },
      "orderNo": {
        "enabled": "block",
        "labelName": "orderNo",
        "orderType": "116144"
      },
      "orderTo": {
        "enabled": "block",
        "showAddressType": "111101",
        "defaultValue": "",
        "mandatorySymbol": "*",
        "mandatory": [
          {
            "name": "required",
            "validation": "true",
            "errorMsg": "thisFieldIsRequired"
          }
        ],
        "regularExpression": "@",
        "labelName": "supplier",
        "filter": {
          "searchStatus": "104101",
          "searchCustomerTypes": "105108,105104"
        }
      },
      "orderName": {
        "enabled": "none",
        "defaultValue": "",
        "mandatorySymbol": "*",
        "mandatory": [
          {
            "name": "required",
            "validation": "true",
            "errorMsg": "thisFieldIsRequired"
          },
          {
            "name": "maxLength",
            "validation": "40",
            "errorMsg": "maxLength"
          },
          {
            "name": "minLength",
            "validation": "3",
            "errorMsg": "minLength"
          }
        ],
        "regularExpression": "@,-",
        "labelName": "orderName"
      },
      "cancelorderRequestNo": {
        "enabled": "none",
        "labelName": "Order Request Number"
      },
      "orderStockFrom": {
        "enabled": "block",
        "defaultValue": "",
        "mandatorySymbol": "*",
        "mandatory": [
          {
            "name": "required",
            "validation": "true",
            "errorMsg": "thisFieldIsRequired"
          }
        ],
        "regularExpression": "@",
        "labelName": "stockAccount",
        "filter": {
          "searchStatus": "104101",
          "searchCustomerTypes": "105108,105104"
        }
      },
      "orderDate": {
        "enabled": "block",
        "startDate": "2017,07,01",
        "defaultValue": "",
        "mandatorySymbol": "*",
        "mandatory": [
          {
            "name": "required",
            "validation": "true",
            "errorMsg": "thisFieldIsRequired"
          },
          {
            "name": "maxLength",
            "validation": "40",
            "errorMsg": "maxLength"
          },
          {
            "name": "minLength",
            "validation": "3",
            "errorMsg": "minLength"
          }
        ],
        "regularExpression": "",
        "labelName": "orderDate"
      },
      "referenceDate": {
        "enabled": "block",
        "defaultValue": "true",
        "mandatorySymbol": "*",
        "mandatory": [
          {
            "name": "required",
            "validation": "true",
            "errorMsg": "thisFieldIsRequired"
          },
          {
            "name": "maxLength",
            "validation": "40",
            "errorMsg": "maxLength"
          },
          {
            "name": "minLength",
            "validation": "3",
            "errorMsg": "minLength"
          }
        ],
        "regularExpression": "",
        "labelName": "referenceDate"
      },
      "referenceNumber": {
        "enabled": "block",
        "defaultValue": "",
        "mandatory": [
          {},
          {
            "name": "maxLength",
            "validation": "40",
            "errorMsg": "maxLength"
          },
          {
            "name": "minLength",
            "validation": "3",
            "errorMsg": "minLength"
          }
        ],
        "regularExpression": "#",
        "labelName": "referenceNumber"
      },
      "referenceNumber2": {
        "enabled": "none",
        "defaultValue": "",
        "mandatory": [
          {},
          {
            "name": "maxLength",
            "validation": "40",
            "errorMsg": "maxLength"
          },
          {
            "name": "minLength",
            "validation": "3",
            "errorMsg": "minLength"
          }
        ],
        "regularExpression": "#",
        "labelName": "controlNo"
      },
      "referenceNumber3": {
        "enabled": "none",
        "defaultValue": "",
        "mandatory": [
          {},
          {
            "name": "maxLength",
            "validation": "40",
            "errorMsg": "maxLength"
          },
          {
            "name": "minLength",
            "validation": "3",
            "errorMsg": "minLength"
          }
        ],
        "regularExpression": "#",
        "labelName": "referenceNumber3"
      },
      "comments": {
        "enabled": "block",
        "defaultValue": "",
        "mandatory": [
          {},
          {
            "name": "maxLength",
            "validation": "40",
            "errorMsg": "maxLength"
          },
          {
            "name": "minLength",
            "validation": "3",
            "errorMsg": "minLength"
          }
        ],
        "regularExpression": "",
        "labelName": "comments"
      },
      "termsAndConditions": {
        "enabled": "block",
        "defaultValue": "",
        "mandatory": [
          {},
          {
            "name": "maxLength",
            "validation": "40",
            "errorMsg": "maxLength"
          },
          {
            "name": "minLength",
            "validation": "3",
            "errorMsg": "minLength"
          }
        ],
        "regularExpression": "",
        "labelName": "termsAndConditions"
      },
      "chargable": {
        "enabled": "none",
        "defaultValue": ""
      },
      "latestPrice": {
        "enabled": "none",
        "defaultValue": ""
      }
    },
    "actions": {
      "download": {
        "url": "/reports/bo/downloadCashSalesInvoice",
        "label": "downloadInvoice",
        "enabled": "block",
        "operationId": "1028"
      }
    },
    "reportView": {
      "parantMenu": [
        "30"
      ]
    },
    "showStockUpdateFlag": "fasle",
    "orderFooter": {
      "createCustomer": {
        "enabled": "block",
        "labelName": "createCustomer",
        "updateFlag": "checked"
      }
    }
  }