{
  "project_info": {
    "project_number": "119290007271",
    "firebase_url": "https://erpbackoffice-fce87.firebaseio.com",
    "project_id": "erpbackoffice-fce87",
    "storage_bucket": "erpbackoffice-fce87.appspot.com"
  },
  "client": [
    {
      "client_info": {
        "mobilesdk_app_id": "1:119290007271:android:a97af522b08accd7d09c42",
        "android_client_info": {
          "package_name": "com.erp_backoffice"
        }
      },
      "oauth_client": [
        {
          "client_id": "119290007271-dplaanlpkfnco2ccj2ohs2jaencieial.apps.googleusercontent.com",
          "client_type": 3
        }
      ],
      "api_key": [
        {
          "current_key": "AIzaSyCmnCrluXAV8PqL60ZN081A0FdTjOZjy3o"
        }
      ],
      "services": {
        "appinvite_service": {
          "other_platform_oauth_client": [
            {
              "client_id": "119290007271-dplaanlpkfnco2ccj2ohs2jaencieial.apps.googleusercontent.com",
              "client_type": 3
            }
          ]
        }
      }
    }
  ],
  "configuration_version": "1"
}